{
    "extends": [
      "tslint:latest", "tslint-react"
    ],
    "rulesDirectory": [
      "node_modules/tslint-eslint-rules/dist/rules"
    ],
    "rules": {
      "no-duplicate-imports": false,
      "no-submodule-imports": false,
      "no-implicit-dependencies": false,
      "member-ordering": {
        "options": [
          {
            "order": [
              "private-static-field",
              "protected-static-field",
              "public-static-field",
              "private-instance-field",
              "protected-instance-field",
              "public-instance-field",
              "constructor",
              "private-static-method",
              "protected-static-method",
              "public-static-method",
              "private-instance-method",
              "protected-instance-method",
              "public-instance-method"
            ]
          }
        ]
      },
      "object-literal-sort-keys": false,
      "variable-name": {
        "options": [
            "ban-keywords",
            "allow-leading-underscore"
          ]
      },
      "class-name": true,
      "curly": true,
      "object-curly-spacing": {
        "options": [
          "always"
        ]
      },
      "comment-format": {
        "options": [
          "check-space"
        ]
      },
      "indent": {
        "options": [
          "spaces"
        ]
      },
      "interface-name": {
        "options": [
          "always-prefix"
        ]
      },
      "one-line": {
        "options": [
          "check-open-brace",
          "check-whitespace"
        ]
      },
      "no-var-keyword": true,
      "semicolon": true,
      "trailing-comma": {
        "options": [
          {
            "multiline": {
              "objects": "always",
              "arrays": "always",
              "functions": "never",
              "typeLiterals": "ignore"
            },
            "singleline": "never"
          }
        ]
      },
      "whitespace": {
        "options": [
          "check-decl",
          "check-branch",
          "check-operator",
          "check-separator",
          "check-type",
          "check-module"
        ]
      },
      "typedef-whitespace": {
        "options": [
          {
            "call-signature": "nospace",
            "index-signature": "nospace",
            "parameter": "nospace",
            "property-declaration": "nospace",
            "variable-declaration": "nospace"
          }
        ]
      },
      "no-internal-module": true,
      "no-trailing-whitespace": true,
      "no-inferrable-types": true,
      "no-null-keyword": false,
      "no-var-requires": false,
      "ordered-imports": false,
      "no-unused-variable": true,
      "quotemark": {
        "options": [
          "single",
          "jsx-double",
          "avoid-escape"
        ]
      },
      "arrow-parens": {
        "options": [ "ban-single-arg-parens" ]
      },
      "jsx-alignment": true,
      "jsx-self-close": true,
      "jsx-no-multiline-js": false,
      "jsx-boolean-value": {
        "options": [ "never" ]
      },
      "jsx-wrap-multiline": false
    },
    "defaultSeverity": "warning"
  }